[
{
"display": "JavaScript Tutorial",
"url": "https://api.trello.com/1/lists/5602d81bc65ff859c4892735/cards?key=207907dc34034ad259b7a2b5cd242a44&token=0c97b9af4d468a59fa2905d2b7aa4d60c654a5486b18fdbb34f42eb4934a391b"
}
]